<?xml version="1.0" encoding="UTF-8"?>
<svg width="50px" height="50px" viewBox="0 0 50 50" version="1.1" xmlns="http://www.w3.org/2000/svg" xmlns:xlink="http://www.w3.org/1999/xlink">
    <!-- Generator: Sketch 47.1 (45422) - http://www.bohemiancoding.com/sketch -->
    <title>Group 4</title>
    <desc>Created with Sketch.</desc>
    <defs></defs>
    <g id="Page-1" stroke="none" stroke-width="1" fill="none" fill-rule="evenodd">
        <g id="Formularios" transform="translate(-669.000000, -834.000000)">
            <g id="Group-4" transform="translate(669.000000, 834.000000)">
                <rect id="Rectangle" fill="#FFFFFF" x="0" y="0" width="50" height="50"></rect>
                <polygon id="Path-2" fill="#000000" transform="translate(25.000000, 25.000000) rotate(180.000000) translate(-25.000000, -25.000000) " points="20 28 30 28 25 22"></polygon>
            </g>
        </g>
    </g>
</svg>