<?xml version="1.0" encoding="UTF-8" standalone="no"?>
<svg width="88px" height="90px" viewBox="0 0 88 90" version="1.1" xmlns="http://www.w3.org/2000/svg" xmlns:xlink="http://www.w3.org/1999/xlink">
    <!-- Generator: Sketch 47 (45396) - http://www.bohemiancoding.com/sketch -->
    <title>Group 20</title>
    <desc>Created with Sketch.</desc>
    <defs></defs>
    <g id="Page-1" stroke="none" stroke-width="1" fill="none" fill-rule="evenodd">
        <g id="Artboard-Copy" transform="translate(-611.000000, -289.000000)">
            <g id="Group-20" transform="translate(609.000000, 289.000000)">
                <path d="M33,32.8309734 C33.9606717,39.6266313 39.8006398,44.8536865 46.8614521,44.8536865 C54.5934386,44.8536865 60.8614521,38.585673 60.8614521,30.8536865 C60.8614521,23.8116464 55.6621538,17.9839675 48.8929075,17" id="Oval-7" stroke="#333333" stroke-linecap="round"></path>
                <g id="Group-6" transform="translate(62.000000, 50.000000)" stroke="#333333">
                    <path d="M1,0 L26,0 L26,0 C26.5522847,-1.01453063e-16 27,0.44771525 27,1 L27,14 L27,14 C27,14.5522847 26.5522847,15 26,15 L23.4142136,15 L23.4142136,15 C23.1489971,15 22.8946432,15.1053568 22.7071068,15.2928932 L20.7071068,17.2928932 L20.7071068,17.2928932 C20.3165825,17.6834175 19.6834175,17.6834175 19.2928932,17.2928932 L17.2928932,15.2928932 L17.2928932,15.2928932 C17.1053568,15.1053568 16.8510029,15 16.5857864,15 L1,15 L1,15 C0.44771525,15 6.76353751e-17,14.5522847 0,14 L0,1 L0,1 C-6.76353751e-17,0.44771525 0.44771525,1.01453063e-16 1,0 Z" id="Rectangle-21" stroke-linecap="round" stroke-linejoin="round" transform="translate(13.500000, 9.000000) rotate(-180.000000) translate(-13.500000, -9.000000) "></path>
                    <path d="M5.5,7.5 L21.5,7.5" id="Line-3-Copy-2" stroke-linecap="square"></path>
                    <path d="M5.5,10.5 L21.5,10.5" id="Line-3-Copy-3" stroke-linecap="square"></path>
                    <path d="M5.5,13.5 L21.5,13.5" id="Line-3-Copy-5" stroke-linecap="square"></path>
                </g>
                <g id="Group-7" transform="translate(23.000000, 68.500000) rotate(-180.000000) translate(-23.000000, -68.500000) translate(10.000000, 65.000000)">
                    <g id="Group-6-Copy" transform="translate(11.500000, 3.500000) rotate(-90.000000) translate(-11.500000, -3.500000) translate(8.000000, -7.500000)" stroke="#333333" stroke-linecap="round" stroke-linejoin="round">
                        <path d="M3.5,20.5591186 L3.5,1.5" id="Line-2"></path>
                        <polyline id="Path-15" points="0 4 3.5 0.5 7 4"></polyline>
                    </g>
                    <rect id="Rectangle-20-Copy" fill="#333333" x="24" y="2.5" width="2" height="2" rx="1"></rect>
                </g>
                <g id="Group-7" transform="translate(70.000000, 81.500000) rotate(-360.000000) translate(-70.000000, -81.500000) translate(57.000000, 78.000000)">
                    <g id="Group-6-Copy" transform="translate(11.500000, 3.500000) rotate(-90.000000) translate(-11.500000, -3.500000) translate(8.000000, -7.500000)" stroke="#333333" stroke-linecap="round" stroke-linejoin="round">
                        <path d="M3.5,20.5591186 L3.5,1.5" id="Line-2"></path>
                        <polyline id="Path-15" points="0 4 3.5 0.5 7 4"></polyline>
                    </g>
                    <rect id="Rectangle-20-Copy" fill="#333333" x="24" y="2.5" width="2" height="2" rx="1"></rect>
                </g>
                <g id="Group-8" transform="translate(3.000000, 1.000000)" stroke="#333333">
                    <path d="M1,0 L41,0 L41,-1.11022302e-16 C41.5522847,-2.12475365e-16 42,0.44771525 42,1 L42,22.3333333 L42,22.3333333 C42,22.8856181 41.5522847,23.3333333 41,23.3333333 L36.1919913,23.3333333 L36.1919913,23.3333333 C35.9267749,23.3333333 35.6724209,23.4386902 35.4848846,23.6262266 L31.8182179,27.2928932 L31.8182179,27.2928932 C31.4276936,27.6834175 30.7945286,27.6834175 30.4040043,27.2928932 L26.7373377,23.6262266 L26.7373377,23.6262266 C26.5498013,23.4386902 26.2954474,23.3333333 26.0302309,23.3333333 L1,23.3333333 L1,23.3333333 C0.44771525,23.3333333 6.76353751e-17,22.8856181 0,22.3333333 L0,1 L-1.11022302e-16,1 C-1.78657678e-16,0.44771525 0.44771525,-9.5692398e-18 1,-1.11022302e-16 Z" id="Rectangle-21" stroke-linecap="round" stroke-linejoin="round"></path>
                    <g id="Stacked-Group" transform="translate(5.000000, 7.000000)" stroke-linecap="square">
                        <path d="M0.825,5 L31.5040747,5" id="Line-3"></path>
                        <path d="M0.825,1 L31.5040747,1" id="Line-3-Copy-4"></path>
                        <path d="M0.825,9 L31.5040747,9" id="Line-3-Copy"></path>
                    </g>
                </g>
                <path d="" id="Path-17" stroke="#979797"></path>
                <path d="M57,45 C59.7112818,46.2964999 62.0876667,47.9977497 64,50 M69.979573,71 C69.979573,72.9758986 70.020427,75.7834519 70.020427,77 L69.979573,71 Z M70,83.2707467 C70,84.8471645 70,86.4235822 70,88 L70,88 C70,88.5522847 69.5522847,89 69,89 L24,89 L24,89 C23.4477153,89 23,88.5522847 23,88 L23,83.4285714 C23,75.6774884 23,74.9683975 23,71 M23,65 L23,63.3094145 C23,55.3304021 28.2807596,48.4123147 36,45" id="Rectangle-29" stroke="#333333" stroke-linecap="round" stroke-linejoin="round"></path>
                <rect id="Rectangle-19" x="0" y="0" width="90" height="90"></rect>
            </g>
        </g>
    </g>
</svg>