<?xml version="1.0" encoding="UTF-8" standalone="no"?>
<svg width="90px" height="90px" viewBox="0 0 90 90" version="1.1" xmlns="http://www.w3.org/2000/svg" xmlns:xlink="http://www.w3.org/1999/xlink">
    <!-- Generator: Sketch 47 (45396) - http://www.bohemiancoding.com/sketch -->
    <title>Group 12 Copy</title>
    <desc>Created with Sketch.</desc>
    <defs></defs>
    <g id="Page-1" stroke="none" stroke-width="1" fill="none" fill-rule="evenodd">
        <g id="Artboard-Copy" transform="translate(-933.000000, -292.000000)">
            <g id="Group-12-Copy" transform="translate(933.000000, 292.000000)">
                <rect id="Rectangle-2" x="0" y="0" width="90" height="90"></rect>
                <g id="Group-18" transform="translate(12.000000, 14.000000)">
                    <path d="M14,61 L15.8106339,53.7574644 L15.8106339,53.7574644 C15.9219257,53.3122974 16.3219088,53 16.7807764,53 L16.7807764,53 L50.2192236,53 L50.2192236,53 C50.6780912,53 51.0780743,53.3122974 51.1893661,53.7574644 L53,61" id="Rectangle-12-Copy" stroke="#333333" stroke-linecap="round" stroke-linejoin="round"></path>
                    <polyline id="Rectangle-12-Copy" stroke="#333333" stroke-linecap="round" stroke-linejoin="round" points="22 53 24 43 24 43 44 43 46 53"></polyline>
                    <path d="M67,15 L67,42 L67,42 C67,42.5522847 66.5522847,43 66,43 L1,43 L1,43 C0.44771525,43 6.76353751e-17,42.5522847 0,42 L0,34 M0,14 L0,1 L0,1 C-6.76353751e-17,0.44771525 0.44771525,1.01453063e-16 1,0 L48,0" id="Rectangle-12" stroke="#333333" stroke-linecap="round" stroke-linejoin="round"></path>
                    <circle id="Oval-6" fill="#333333" cx="61" cy="40.5" r="1"></circle>
                    <circle id="Oval-6-Copy" fill="#333333" cx="38" cy="17" r="1"></circle>
                </g>
                <path d="M49.5,35.5 L69.5,35.5" id="Line-4" stroke="#333333" stroke-linecap="square"></path>
                <path d="M49.5,38.5 L69.5,38.5" id="Line-4-Copy" stroke="#333333" stroke-linecap="square"></path>
                <path d="M49.5,41.5 L69.5,41.5" id="Line-4-Copy-2" stroke="#333333" stroke-linecap="square"></path>
                <circle id="Oval-8" fill="#333333" cx="23" cy="48" r="1"></circle>
                <circle id="Oval-8-Copy" fill="#333333" cx="28" cy="48" r="1"></circle>
                <circle id="Oval-8-Copy-2" fill="#333333" cx="33" cy="48" r="1"></circle>
                <circle id="Oval-9" stroke="#333333" cx="77" cy="13" r="12"></circle>
                <rect id="Rectangle-22" stroke="#333333" stroke-linejoin="round" x="2" y="32" width="32" height="11" rx="1"></rect>
                <path d="M17,28.5 L17,20 L17,20 C17,19.4477153 17.4477153,19 18,19 L60.5,19" id="Path-10" stroke="#333333"></path>
                <path d="M17,47.826087 L17,51 L17,51 C17,51.5522847 17.4477153,52 18,52 L73,52 L73,52 C73.5522847,52 74,51.5522847 74,51 L74,28" id="Path-16" stroke="#333333"></path>
                <rect id="Rectangle-17" stroke="#333333" x="0.5" y="75.5" width="89" height="14" rx="1"></rect>
            </g>
        </g>
    </g>
</svg>