<?xml version="1.0" standalone="no"?>
<!DOCTYPE svg PUBLIC "-//W3C//DTD SVG 1.1//EN" "http://www.w3.org/Graphics/SVG/1.1/DTD/svg11.dtd" >
<svg xmlns="http://www.w3.org/2000/svg">
<metadata>Generated by IcoMoon</metadata>
<defs>
<font id="banco-estado" horiz-adv-x="1024">
<font-face units-per-em="1024" ascent="960" descent="-64" />
<missing-glyph horiz-adv-x="1024" />
<glyph unicode="&#x20;" horiz-adv-x="512" d="" />
<glyph unicode="&#xe001;" glyph-name="error" d="M512 33.524c228.909 0 414.476 185.567 414.476 414.476s-185.567 414.476-414.476 414.476c-228.909 0-414.476-185.567-414.476-414.476v0c0-228.909 185.567-414.476 414.476-414.476v0zM512-64c-282.77 0-512 229.23-512 512s229.23 512 512 512c282.77 0 512-229.23 512-512v0c0-282.77-229.23-512-512-512v0zM800.67 232.472l-215.528 215.528 215.528 215.528-73.143 73.143-215.528-215.528-215.528 215.528-73.143-73.143 215.528-215.528-215.528-215.528 73.143-73.143 215.528 215.528 215.528-215.528 73.143 73.143z" />
<glyph unicode="&#xe002;" glyph-name="check" d="M365.743 306.029l-238.424 238.424-127.16-127.16 238.424-238.424-0.159-0.159 127.16-127.16 635.956 635.956-127.16 127.16-508.638-508.638z" />
<glyph unicode="&#xe003;" glyph-name="descarga" d="M475.429 515.356v420.995h97.524v-420.995l195.048 190.512 68.96-67.356-312.769-305.496-313.985 306.683 68.96 67.356 196.264-191.699zM97.524 150.326v-119.070h828.952v119.070h-828.952zM0 245.581h1024v-309.581h-1024v309.581z" />
<glyph unicode="&#xe004;" glyph-name="exito" d="M512 33.524c228.909 0 414.476 185.567 414.476 414.476s-185.567 414.476-414.476 414.476c-228.909 0-414.476-185.567-414.476-414.476s185.567-414.476 414.476-414.476zM512-64c-282.77 0-512 229.23-512 512s229.23 512 512 512c282.77 0 512-229.23 512-512s-229.23-512-512-512zM433.703 371.645l-129.3 129.3-68.96-68.96 129.3-129.3-0.086-0.086 68.96-68.96 344.885 344.885-68.96 68.96-275.839-275.839z" />
<glyph unicode="&#xe005;" glyph-name="imprimir" d="M926.476 252.952v268.19h-828.952v-268.19h219.429v-219.429h414.476v219.429h195.048zM828.952 155.429v-219.429h-609.524v219.429h-219.429v463.238h1024v-463.238h-195.048zM316.952 618.667h414.476v243.81h-414.476v-243.81zM219.429 960h609.524v-438.857h-609.524v438.857zM731.429 228.571h-414.476v-37.925h-97.524v135.449h609.524v-146.286h-97.524v48.762zM873.651 435.81c0-31.419-25.47-56.889-56.889-56.889s-56.889 25.47-56.889 56.889c0 31.419 25.47 56.889 56.889 56.889s56.889-25.47 56.889-56.889z" />
<glyph unicode="&#xe006;" glyph-name="informacion" d="M512 33.524c228.909 0 414.476 185.567 414.476 414.476s-185.567 414.476-414.476 414.476c-228.909 0-414.476-185.567-414.476-414.476s185.567-414.476 414.476-414.476zM512-64c-282.77 0-512 229.23-512 512s229.23 512 512 512c282.77 0 512-229.23 512-512s-229.23-512-512-512zM463.238 533.333v-390.095h97.524v390.095zM463.238 740.571h97.524v-97.524h-97.524v97.524z" />
<glyph unicode="&#xe007;" glyph-name="mail" horiz-adv-x="1170" d="M0 887.92v-881.223h1170.286v881.223h-1170.286zM107.065 653.772l185.989-133.688-185.989-239.527v373.214zM111.741 115l255.147 333.765 218.254-149.229 218.513 149.229 257.705-333.765h-949.621zM1061.721 282.183l-183.221 237.924 183.221 138.402v-376.326zM1062.163 777.473l-477.020-329.95-476.964 329.95h953.984z" />
<glyph unicode="&#xe008;" glyph-name="pdf" horiz-adv-x="910" d="M625.778 960h-609.28v-1024h877.227v646.258zM625.778 789.333l139.947-197.404h-139.947zM528.498 862.72v-365.796h267.947v-170.667h-682.667v536.462zM113.778 33.28v195.129h682.667v-195.129z" />
<glyph unicode="&#xe009;" glyph-name="tooltip" d="M512 33.524c228.909 0 414.476 185.567 414.476 414.476s-185.567 414.476-414.476 414.476c-228.909 0-414.476-185.567-414.476-414.476s185.567-414.476 414.476-414.476zM512-64c-282.77 0-512 229.23-512 512s229.23 512 512 512c282.77 0 512-229.23 512-512s-229.23-512-512-512zM463.238 228.571h97.524v-97.524h-97.524v97.524zM560.762 381.002c84.125 21.652 146.286 98.018 146.286 188.903 0 107.722-87.326 195.048-195.048 195.048s-195.048-87.326-195.048-195.048h97.524c0 53.861 43.663 97.524 97.524 97.524s97.524-43.663 97.524-97.524c0-53.861-43.663-97.524-97.524-97.524h-48.762v-170.667h97.524v79.288z" />
<glyph unicode="&#xe010;" glyph-name="radio-button" d="M1024 448c0-282.77-229.23-512-512-512s-512 229.23-512 512c0 282.77 229.23 512 512 512s512-229.23 512-512z" />
<glyph unicode="&#xe011;" glyph-name="flecha-abajo" horiz-adv-x="910" d="M0 704h910.222l-455.111-512-455.111 512z" />
<glyph unicode="&#xe012;" glyph-name="flecha-arriba" horiz-adv-x="910" d="M0 192h910.222l-455.111 512-455.111-512z" />
<glyph unicode="&#xe013;" glyph-name="flecha-derecha" horiz-adv-x="910" d="M167.253-64v1024l575.716-512-575.716-512z" />
<glyph unicode="&#xe014;" glyph-name="flecha-izquierda" horiz-adv-x="910" d="M742.969-64v1024l-575.716-512 575.716-512z" />
<glyph unicode="&#xe015;" glyph-name="calendario" d="M0 846.222h1024v-113.778h-1024v113.778zM113.778 618.667h796.444v-113.778h-796.444v113.778zM0 49.778h1024v-113.778h-1024v113.778zM113.778 733.5v-683.722h-113.778v683.722zM1024 732.806v-682.549h-113.778v682.549zM170.667 448h170.667v-113.778h-170.667v113.778zM170.667 220.444h170.667v-113.778h-170.667v113.778zM455.111 448h113.778v-113.778h-113.778v113.778zM455.111 220.444h113.778v-113.778h-113.778v113.778zM682.667 448h170.667v-113.778h-170.667v113.778zM682.667 220.444h170.667v-113.778h-170.667v113.778zM227.556 960h113.778v-113.778h-113.778v113.778zM682.667 732.444h113.778v-56.889h-113.778v56.889zM227.556 732.444h113.778v-56.889h-113.778v56.889zM682.667 960h113.778v-113.778h-113.778v113.778z" />
</font></defs></svg>